matirko_lab04/test.vcd
$date
	Thu Oct  4 23:20:39 2018
$end
$version
	Icarus Verilog
$end
$timescale
	1s
$end
$scope module lab03 $end
$var wire 32 ! wd [31:0] $end
$var wire 20 " uj_immoffset [19:0] $end
$var wire 32 # targgen_jr_out [31:0] $end
$var wire 32 $ targgen_j_out [31:0] $end
$var wire 32 % targgen_b_out [31:0] $end
$var wire 32 & s_sign_ext [31:0] $end
$var wire 32 ' rs2 [31:0] $end
$var wire 32 ( rs1 [31:0] $end
$var wire 32 ) rdata [31:0] $end
$var wire 32 * pcplus4 [31:0] $end
$var wire 32 + pcout [31:0] $end
$var wire 3 , pc_sel [2:0] $end
$var wire 32 - pc_in [31:0] $end
$var wire 32 . op2 [31:0] $end
$var wire 32 / op1 [31:0] $end
$var wire 32 0 memout [31:0] $end
$var wire 1 1 mem_val $end
$var wire 1 2 mem_rw $end
$var wire 32 3 i_sign_ext [31:0] $end
$var wire 256 4 decout [255:0] $end
$var wire 1 5 br_ltu $end
$var wire 1 6 br_lt $end
$var wire 1 7 br_eq $end
$var wire 12 8 b_immoffset [11:0] $end
$var wire 2 9 Wb_sel [1:0] $end
$var wire 1 : Rf_wen $end
$var wire 2 ; Op2Sel [1:0] $end
$var wire 1 < Op1Sel $end
$var wire 4 = AluFun [3:0] $end
$var wire 32 > ALUout [31:0] $end
$var reg 1 ? clock $end
$var integer 32 @ DEBUG [31:0] $end
$var integer 32 A cycle [31:0] $end
$scope module add4 $end
$var wire 32 B addrout [31:0] $end
$var wire 32 C addrin [31:0] $end
$upscope $end
$scope module alu $end
$var wire 32 D op2 [31:0] $end
$var wire 32 E op1 [31:0] $end
$var wire 4 F AluFun [3:0] $end
$var reg 32 G out [31:0] $end
$var reg 64 H temp [63:0] $end
$upscope $end
$scope module branchcondgen $end
$var wire 32 I rs2 [31:0] $end
$var wire 32 J rs1 [31:0] $end
$var reg 1 7 br_eq $end
$var reg 1 6 br_lt $end
$var reg 1 5 br_ltu $end
$upscope $end
$scope module control $end
$var wire 1 7 br_eq $end
$var wire 32 K inst [31:0] $end
$var reg 4 L AluFun [3:0] $end
$var reg 1 2 Mem_rw $end
$var reg 1 1 Mem_val $end
$var reg 1 < Op1Sel $end
$var reg 2 M Op2Sel [1:0] $end
$var reg 1 : Rf_wen $end
$var reg 2 N Wb_sel [1:0] $end
$var reg 3 O func3 [2:0] $end
$var reg 7 P func7 [6:0] $end
$var reg 12 Q imm [11:0] $end
$var reg 7 R opcode [6:0] $end
$var reg 3 S pc_sel [2:0] $end
$upscope $end
$scope module datamem $end
$var wire 32 T addr [31:0] $end
$var wire 1 ? clock $end
$var wire 1 2 mem_rw $end
$var wire 1 1 mem_val $end
$var wire 32 U wdata [31:0] $end
$var reg 32 V rdata [31:0] $end
$upscope $end
$scope module decoder $end
$var wire 256 W rs2 [255:0] $end
$var wire 256 X rs1 [255:0] $end
$var wire 256 Y rd [255:0] $end
$var wire 32 Z decodein [31:0] $end
$var reg 256 [ decode [255:0] $end
$var reg 256 \ decodeout [255:0] $end
$var reg 12 ] imm12_enc [11:0] $end
$var reg 20 ^ imm19_enc [19:0] $end
$var reg 5 _ rd_enc [4:0] $end
$var reg 5 ` rs1_enc [4:0] $end
$var reg 5 a rs2_enc [4:0] $end
$scope module rd_helper $end
$var wire 5 b reg_id [4:0] $end
$var reg 256 c reg_name [255:0] $end
$upscope $end
$scope module rs1_helper $end
$var wire 5 d reg_id [4:0] $end
$var reg 256 e reg_name [255:0] $end
$upscope $end
$scope module rs2_helper $end
$var wire 5 f reg_id [4:0] $end
$var reg 256 g reg_name [255:0] $end
$upscope $end
$upscope $end
$scope module mem $end
$var wire 32 h out [31:0] $end
$var wire 32 i address [31:0] $end
$upscope $end
$scope module mux $end
$var wire 32 j in1 [31:0] $end
$var wire 1 < sel $end
$var wire 32 k in0 [31:0] $end
$var reg 32 l out [31:0] $end
$upscope $end
$scope module mux4 $end
$var wire 32 m in1 [31:0] $end
$var wire 32 n in2 [31:0] $end
$var wire 2 o sel [1:0] $end
$var wire 32 p in3 [31:0] $end
$var wire 32 q in0 [31:0] $end
$var reg 32 r out [31:0] $end
$upscope $end
$scope module mux_pc $end
$var wire 32 s in0 [31:0] $end
$var wire 32 t in4 [31:0] $end
$var wire 3 u sel [2:0] $end
$var wire 32 v in3 [31:0] $end
$var wire 32 w in2 [31:0] $end
$var wire 32 x in1 [31:0] $end
$var reg 32 y out [31:0] $end
$upscope $end
$scope module mux_wd $end
$var wire 32 z in0 [31:0] $end
$var wire 32 { in1 [31:0] $end
$var wire 32 | in2 [31:0] $end
$var wire 32 } in3 [31:0] $end
$var wire 2 ~ sel [1:0] $end
$var reg 32 !" out [31:0] $end
$upscope $end
$scope module pc $end
$var wire 1 ? clock $end
$var wire 32 "" next [31:0] $end
$var reg 32 #" pc [31:0] $end
$upscope $end
$scope module regfile $end
$var wire 1 ? clock $end
$var wire 5 $" ir1 [4:0] $end
$var wire 5 %" ir2 [4:0] $end
$var wire 32 &" rs1 [31:0] $end
$var wire 32 '" rs2 [31:0] $end
$var wire 1 : rt_wen $end
$var wire 5 (" wa [4:0] $end
$var wire 32 )" wd [31:0] $end
$var reg 7 *" i [6:0] $end
$scope task disp $end
$upscope $end
$upscope $end
$scope module targgen_b $end
$var wire 32 +" cur_pc [31:0] $end
$var wire 12 ," imm [11:0] $end
$var reg 32 -" out [31:0] $end
$upscope $end
$scope module targgen_j $end
$var wire 32 ." cur_pc [31:0] $end
$var wire 20 /" imm [19:0] $end
$var reg 32 0" out [31:0] $end
$upscope $end
$scope module targgen_jr $end
$var wire 32 1" imm [31:0] $end
$var wire 32 2" rs1 [31:0] $end
$var reg 32 3" out [31:0] $end
$upscope $end
$upscope $end
$enddefinitions $end
#0
$dumpvars
bx 3"
bx 2"
bx 1"
bx 0"
bx /"
bx ."
bx -"
bx ,"
bx +"
b100000 *"
bx )"
bx ("
bx '"
bx &"
bx %"
bx $"
bx #"
b0x ""
bx !"
bx ~
bx }
bx |
bx {
b0 z
b0x y
bx x
bx w
bx v
bx u
b0 t
bx s
bx r
bx q
bx p
bx o
bx n
bx m
bx l
bx k
bx000000000000 j
bx i
bx h
bx g
bx f
bx e
bx d
bx c
bx b
bx a
bx `
bx _
bx ^
bx ]
bx \
bx [
bx Z
bx Y
bx X
bx W
bx V
bx U
bx T
bx S
bx R
bx Q
bx P
bx O
bx N
bx M
bx L
bx K
bx J
bx I
bx H
bx G
bx F
bx E
bx D
bx C
bx B
b0 A
b0 @
0?
bx >
bx =
x<
bx ;
x:
bx 9
bx 8
x7
x6
x5
bx 4
bx 3
x2
x1
bx 0
bx /
bx .
b0x -
bx ,
bx +
bx *
bx )
bx (
bx '
bx &
bx %
bx $
bx #
bx "
bx !
$end
#10
b0 !
b0 !"
b0 )"
05
06
17
b0 #
b0 x
b0 3"
b1000000001000 %
b1000000001000 w
b1000000001000 -"
b1000000000000 $
b1000000000000 v
b1000000000000 0"
b0 >
b0 G
b0 T
b0 |
b0 /
b0 E
b0 l
b0 .
b0 D
b0 r
b1000000000100 -
b1000000000100 y
b1000000000100 ""
b111001100110000 Y
b111001100110000 c
b1111010011001010111001001101111 W
b1111010011001010111001001101111 g
b1111010011001010111001001101111 X
b1111010011001010111001001101111 e
b1000 ("
b0 '
b0 I
b0 U
b0 p
b0 '"
b0 %"
b0 (
b0 J
b0 k
b0 &"
b0 2"
b0 $"
b0 j
b1000 &
b1000 n
b0 3
b0 m
b0 1"
b100 8
b100 ,"
b0 "
b0 /"
b0 =
b0 F
b0 L
02
1:
b10 9
b10 N
b10 ~
0<
b11 ;
b11 M
b11 o
b0 ,
b0 S
b0 u
b0 P
b0 O
b110011 R
b1100001011001000110010000100000011100110011000000100000011110100110010101110010011011110010000001111010011001010111001001101111 4
b1100001011001000110010000100000011100110011000000100000011110100110010101110010011011110010000001111010011001010111001001101111 \
b1000 _
b1000 b
b0 a
b0 f
b0 `
b0 d
b1100001011001000110010000100000011100110011000000100000011110100110010101110010011011110010000001111010011001010111001001101111 [
b10000110011 0
b10000110011 K
b10000110011 Z
b10000110011 h
b1000000000100 *
b1000000000100 B
b1000000000100 s
b1000000000100 {
b1000000000000 +
b1000000000000 C
b1000000000000 i
b1000000000000 q
b1000000000000 #"
b1000000000000 +"
b1000000000000 ."
b1 A
1?
#20
0?
#30
b1100001011001000110010000100000011100110011000100100000011110100110010101110010011011110010000001111010011001010111001001101111 4
b1100001011001000110010000100000011100110011000100100000011110100110010101110010011011110010000001111010011001010111001001101111 \
b111001100110001 Y
b111001100110001 c
b1001 ("
b1001 &
b1001 n
b10000000100 8
b10000000100 ,"
b1001 _
b1001 b
b1100001011001000110010000100000011100110011000100100000011110100110010101110010011011110010000001111010011001010111001001101111 [
b10010110011 0
b10010110011 K
b10010110011 Z
b10010110011 h
b1000000001000 -
b1000000001000 y
b1000000001000 ""
b1100000001100 %
b1100000001100 w
b1100000001100 -"
b1000000000100 $
b1000000000100 v
b1000000000100 0"
b1000000001000 *
b1000000001000 B
b1000000001000 s
b1000000001000 {
b1000000000100 +
b1000000000100 C
b1000000000100 i
b1000000000100 q
b1000000000100 #"
b1000000000100 +"
b1000000000100 ."
b10 A
1?
#40
0?
#50
b100000000000 #
b100000000000 x
b100000000000 3"
b111001100110010 Y
b111001100110010 c
b10010 ("
b1000000000000000000000000000000 j
b10000010010 &
b10000010010 n
b10000000000 3
b10000000000 m
b10000000000 1"
b1000001001 8
b1000001001 ,"
b1000000000 "
b1000000000 /"
b10 =
b10 F
b10 L
b100000 P
b1110011011101010110001000100000011100110011001000100000011110100110010101110010011011110010000001111010011001010111001001101111 4
b1110011011101010110001000100000011100110011001000100000011110100110010101110010011011110010000001111010011001010111001001101111 \
b10010 _
b10010 b
b1110011011101010110001000100000011100110011001000100000011110100110010101110010011011110010000001111010011001010111001001101111 [
b1000000000000000000100100110011 0
b1000000000000000000100100110011 K
b1000000000000000000100100110011 Z
b1000000000000000000100100110011 h
b1000000001100 -
b1000000001100 y
b1000000001100 ""
b1010000011010 %
b1010000011010 w
b1010000011010 -"
b1010000001000 $
b1010000001000 v
b1010000001000 0"
b1000000001100 *
b1000000001100 B
b1000000001100 s
b1000000001100 {
b1000000001000 +
b1000000001000 C
b1000000001000 i
b1000000001000 q
b1000000001000 #"
b1000000001000 +"
b1000000001000 ."
b11 A
1?
#60
0?
#70
b11100010 !
b11100010 !"
b11100010 )"
15
16
07
b111000100 #
b111000100 x
b111000100 3"
b11100010 >
b11100010 G
b11100010 T
b11100010 |
b11100010 .
b11100010 D
b11100010 r
b111001100110000 Y
b111001100110000 c
b111001100110000 X
b111001100110000 e
b1000 ("
b11101111111111111111 '
b11101111111111111111 I
b11101111111111111111 U
b11101111111111111111 p
b11101111111111111111 '"
b10 %"
b1000 $"
b1110001001000000000000000000 j
b11101000 &
b11101000 n
b11100010 3
b11100010 m
b11100010 1"
b1110100 8
b1110100 ,"
b100000000001110001 "
b100000000001110001 /"
b0 =
b0 F
b0 L
b1 ;
b1 M
b1 o
b11100010 Q
b10011 R
b110000101100100011001000110100100100000011100110011000000100000011100110011000000100000001100100011001000110110 4
b110000101100100011001000110100100100000011100110011000000100000011100110011000000100000001100100011001000110110 \
b1000 _
b1000 b
b1000 `
b1000 d
b110000101100100011001000110100100100000011100110011000000100000011100110011000000100000001100100011001000110110 [
b1110001001000000010000010011 0
b1110001001000000010000010011 K
b1110001001000000010000010011 Z
b1110001001000000010000010011 h
b1000000010000 -
b1000000010000 y
b1000000010000 ""
b1000011110100 %
b1000011110100 w
b1000011110100 -"
b1000001000011101110 $
b1000001000011101110 v
b1000001000011101110 0"
b1000000010000 *
b1000000010000 B
b1000000010000 s
b1000000010000 {
b1000000001100 +
b1000000001100 C
b1000000001100 i
b1000000001100 q
b1000000001100 #"
b1000000001100 +"
b1000000001100 ."
b100 A
1?
#80
b111000100 !
b111000100 !"
b111000100 )"
b111000100 >
b111000100 G
b111000100 T
b111000100 |
b11100010 /
b11100010 E
b11100010 l
b1010100110 #
b1010100110 x
b1010100110 3"
b11100010 (
b11100010 J
b11100010 k
b11100010 &"
b11100010 2"
0?
#90
b11111111111111111111101000000101 !
b11111111111111111111101000000101 !"
b11111111111111111111101000000101 )"
b11111111111111111111101000000101 >
b11111111111111111111101000000101 G
b11111111111111111111101000000101 T
b11111111111111111111101000000101 |
05
06
17
b0 /
b0 E
b0 l
b11111111111111111111101000000101 .
b11111111111111111111101000000101 D
b11111111111111111111101000000101 r
b11111111111111111111010000001010 #
b11111111111111111111010000001010 x
b11111111111111111111010000001010 3"
b111001100110001 Y
b111001100110001 c
b111001100110001 X
b111001100110001 e
b1001 ("
b0 '
b0 I
b0 U
b0 p
b0 '"
b101 %"
b0 (
b0 J
b0 k
b0 &"
b0 2"
b1001 $"
b10100000010101001000000000000000 j
b11111111111111111111101000001001 &
b11111111111111111111101000001001 n
b11111111111111111111101000000101 3
b11111111111111111111101000000101 m
b11111111111111111111101000000101 1"
b110100000100 8
b110100000100 ,"
b10100100010100000010 "
b10100100010100000010 /"
b101000000101 Q
b1100001011001000110010001101001001000000111001100110001001000000111001100110001001000000010110100110001001101010011001100110001 4
b1100001011001000110010001101001001000000111001100110001001000000111001100110001001000000010110100110001001101010011001100110001 \
b1001 _
b1001 b
b1001 `
b1001 d
b1100001011001000110010001101001001000000111001100110001001000000111001100110001001000000010110100110001001101010011001100110001 [
b10100000010101001000010010010011 0
b10100000010101001000010010010011 K
b10100000010101001000010010010011 Z
b10100000010101001000010010010011 h
b1000000010100 -
b1000000010100 y
b1000000010100 ""
b101000011000 %
b101000011000 w
b101000011000 -"
b11111111111101001001101000010100 $
b11111111111101001001101000010100 v
b11111111111101001001101000010100 0"
b1000000010100 *
b1000000010100 B
b1000000010100 s
b1000000010100 {
b1000000010000 +
b1000000010000 C
b1000000010000 i
b1000000010000 q
b1000000010000 #"
b1000000010000 +"
b1000000010000 ."
b101 A
1?
#100
b11111111111111111111010000001010 !
b11111111111111111111010000001010 !"
b11111111111111111111010000001010 )"
b11111111111111111111010000001010 >
b11111111111111111111010000001010 G
b11111111111111111111010000001010 T
b11111111111111111111010000001010 |
16
07
b11111111111111111111101000000101 /
b11111111111111111111101000000101 E
b11111111111111111111101000000101 l
b11111111111111111110111000001111 #
b11111111111111111110111000001111 x
b11111111111111111110111000001111 3"
b11111111111111111111101000000101 (
b11111111111111111111101000000101 J
b11111111111111111111101000000101 k
b11111111111111111111101000000101 &"
b11111111111111111111101000000101 2"
0?
#110
06
b11100010 #
b11100010 x
b11100010 3"
b111001100110000 X
b111001100110000 e
b10000 ("
b0 %"
b11100010 (
b11100010 J
b11100010 k
b11100010 &"
b11100010 2"
b1000 $"
b1000000000000000000 j
b10000 &
b10000 n
b0 3
b0 m
b0 1"
b1000 8
b1000 ,"
b100000000000000000 "
b100000000000000000 /"
bx =
bx F
bx L
x2
x:
bx 9
bx N
bx ~
x<
bx ;
bx M
bx o
b0 Q
b1100011 R
b110001001100101011100010010000001110011001100000010000001111010011001010111001001101111001000000011000100110000 4
b110001001100101011100010010000001110011001100000010000001111010011001010111001001101111001000000011000100110000 \
b10000 ^
b1000 `
b1000 d
b110001001100101011100010010000001110011001100000010000001111010011001010111001001101111001000000011000100110000 [
b1000000100001100011 0
b1000000100001100011 K
b1000000100001100011 Z
b1000000100001100011 h
b1000000011000 -
b1000000011000 y
b1000000011000 ""
b1000000100100 %
b1000000100100 w
b1000000100100 -"
b1000001000000010100 $
b1000001000000010100 v
b1000001000000010100 0"
b1000000011000 *
b1000000011000 B
b1000000011000 s
b1000000011000 {
b1000000010100 +
b1000000010100 C
b1000000010100 i
b1000000010100 q
b1000000010100 #"
b1000000010100 +"
b1000000010100 ."
b110 A
1?
#120
0?
#130
b11111111111111111111101000000101 !
b11111111111111111111101000000101 !"
b11111111111111111111101000000101 )"
15
b10010 #
b10010 x
b10010 3"
b11111111111111111111101000000101 >
b11111111111111111111101000000101 G
b11111111111111111111101000000101 T
b11111111111111111111101000000101 |
b0 /
b0 E
b0 l
b111001100110010 Y
b111001100110010 c
b111001100110001 W
b111001100110001 g
b111001100110010 X
b111001100110010 e
b10010 ("
b11111111111111111111101000000101 '
b11111111111111111111101000000101 I
b11111111111111111111101000000101 U
b11111111111111111111101000000101 p
b11111111111111111111101000000101 '"
b1001 %"
b0 (
b0 J
b0 k
b0 &"
b0 2"
b10010 $"
b100110010000000000000000 j
b10010 &
b10010 n
b1001 3
b1001 m
b1001 1"
b1001 8
b1001 ,"
b1001000010000000100 "
b1001000010000000100 /"
b0 =
b0 F
b0 L
02
1:
b10 9
b10 N
b10 ~
0<
b11 ;
b11 M
b11 o
b0 P
b110011 R
b11000010110010001100100001000000111001100110010001000000111001100110010001000000111001100110001 4
b11000010110010001100100001000000111001100110010001000000111001100110010001000000111001100110001 \
b10010 _
b10010 b
b1001 a
b1001 f
b10010 `
b10010 d
b11000010110010001100100001000000111001100110010001000000111001100110010001000000111001100110001 [
b100110010000100100110011 0
b100110010000100100110011 K
b100110010000100100110011 Z
b100110010000100100110011 h
b1000000011100 -
b1000000011100 y
b1000000011100 ""
b1000000101010 %
b1000000101010 w
b1000000101010 -"
b10010001100000100000 $
b10010001100000100000 v
b10010001100000100000 0"
b1000000011100 *
b1000000011100 B
b1000000011100 s
b1000000011100 {
b1000000011000 +
b1000000011000 C
b1000000011000 i
b1000000011000 q
b1000000011000 #"
b1000000011000 +"
b1000000011000 ."
b111 A
1?
#140
b11111111111111111111010000001010 !
b11111111111111111111010000001010 !"
b11111111111111111111010000001010 )"
b11111111111111111111010000001010 >
b11111111111111111111010000001010 G
b11111111111111111111010000001010 T
b11111111111111111111010000001010 |
05
17
b11111111111111111111101000000101 /
b11111111111111111111101000000101 E
b11111111111111111111101000000101 l
b11111111111111111111101000010111 #
b11111111111111111111101000010111 x
b11111111111111111111101000010111 3"
b11111111111111111111101000000101 (
b11111111111111111111101000000101 J
b11111111111111111111101000000101 k
b11111111111111111111101000000101 &"
b11111111111111111111101000000101 2"
0?
#150
b11100001 !
b11100001 !"
b11100001 )"
b11100001 >
b11100001 G
b11100001 T
b11100001 |
07
b11100010 /
b11100010 E
b11100010 l
b11100000 #
b11100000 x
b11100000 3"
b11111111111111111111111111111111 .
b11111111111111111111111111111111 D
b11111111111111111111111111111111 r
b111001100110000 Y
b111001100110000 c
b111001100110000 X
b111001100110000 e
b1000 ("
b0 '
b0 I
b0 U
b0 p
b0 '"
b11111 %"
b11100010 (
b11100010 J
b11100010 k
b11100010 &"
b11100010 2"
b1000 $"
b11111111111101000000000000000000 j
b11111111111111111111111111101000 &
b11111111111111111111111111101000 n
b11111111111111111111111111111111 3
b11111111111111111111111111111111 m
b11111111111111111111111111111111 1"
b101111110100 8
b101111110100 ,"
b10100000011111111111 "
b10100000011111111111 /"
b1 ;
b1 M
b1 o
b111111111111 Q
b10011 R
b1100001011001000110010001101001001000000111001100110000001000000111001100110000001000000010110100110001 4
b1100001011001000110010001101001001000000111001100110000001000000111001100110000001000000010110100110001 \
b1000 _
b1000 b
b1000 `
b1000 d
b1100001011001000110010001101001001000000111001100110000001000000111001100110000001000000010110100110001 [
b11111111111101000000010000010011 0
b11111111111101000000010000010011 K
b11111111111101000000010000010011 Z
b11111111111101000000010000010011 h
b1000000100000 -
b1000000100000 y
b1000000100000 ""
b100000000100 %
b100000000100 w
b100000000100 -"
b11111111111101000010000000011010 $
b11111111111101000010000000011010 v
b11111111111101000010000000011010 0"
b1000000100000 *
b1000000100000 B
b1000000100000 s
b1000000100000 {
b1000000011100 +
b1000000011100 C
b1000000011100 i
b1000000011100 q
b1000000011100 #"
b1000000011100 +"
b1000000011100 ."
b1000 A
1?
#160
b11100000 !
b11100000 !"
b11100000 )"
b11100000 >
b11100000 G
b11100000 T
b11100000 |
b11100001 /
b11100001 E
b11100001 l
b11011111 #
b11011111 x
b11011111 3"
b11100001 (
b11100001 J
b11100001 k
b11100001 &"
b11100001 2"
0?
#170
17
b11111111111111111111111111101010 #
b11111111111111111111111111101010 x
b11111111111111111111111111101010 3"
b1000000100100 !
b1000000100100 !"
b1000000100100 )"
b1111010011001010111001001101111 Y
b1111010011001010111001001101111 c
b0 ("
b10101 %"
b0 (
b0 J
b0 k
b0 &"
b0 2"
b11111 $"
b11111111010111111111000000000000 j
b11111111111111111111111111100000 &
b11111111111111111111111111100000 n
b11111111111111111111111111110101 3
b11111111111111111111111111110101 m
b11111111111111111111111111110101 1"
b101111110000 8
b101111110000 ,"
b11111111111111111010 "
b11111111111111111010 /"
bx =
bx F
bx L
x2
b1 9
b1 N
b1 ~
x<
bx ;
bx M
bx o
b11 ,
b11 S
b11 u
b111111110101 Q
b111 O
b1101111 R
b11010100110000101101100001000000111101001100101011100100110111100100000001011010011000100110010 4
b11010100110000101101100001000000111101001100101011100100110111100100000001011010011000100110010 \
b0 _
b0 b
b11111111111111110100 ^
b11010100110000101101100001000000111101001100101011100100110111100100000001011010011000100110010 [
b11111111010111111111000001101111 0
b11111111010111111111000001101111 K
b11111111010111111111000001101111 Z
b11111111010111111111000001101111 h
b1000000010100 -
b1000000010100 y
b1000000010100 ""
b100000000000 %
b100000000000 w
b100000000000 -"
b1000000010100 $
b1000000010100 v
b1000000010100 0"
b1000000100100 *
b1000000100100 B
b1000000100100 s
b1000000100100 {
b1000000100000 +
b1000000100000 C
b1000000100000 i
b1000000100000 q
b1000000100000 #"
b1000000100000 +"
b1000000100000 ."
b1001 A
1?
#180
0?
#190
07
b11100001 #
b11100001 x
b11100001 3"
b1111010011001010111001001101111 W
b1111010011001010111001001101111 g
b10000 ("
b0 %"
b11100001 (
b11100001 J
b11100001 k
b11100001 &"
b11100001 2"
b1000 $"
b1000000000000000000 j
b10000 &
b10000 n
b0 3
b0 m
b0 1"
b1000 8
b1000 ,"
b100000000000000000 "
b100000000000000000 /"
x:
bx 9
bx N
bx ~
b0 ,
b0 S
b0 u
b0 Q
b0 O
b1100011 R
b110001001100101011100010010000001110011001100000010000001111010011001010111001001101111001000000011000100110000 4
b110001001100101011100010010000001110011001100000010000001111010011001010111001001101111001000000011000100110000 \
b10000 ^
b0 a
b0 f
b110001001100101011100010010000001110011001100000010000001111010011001010111001001101111001000000011000100110000 [
b1000000100001100011 0
b1000000100001100011 K
b1000000100001100011 Z
b1000000100001100011 h
b1000000011000 -
b1000000011000 y
b1000000011000 ""
b1000000011000 !
b1000000011000 !"
b1000000011000 )"
b1000000100100 %
b1000000100100 w
b1000000100100 -"
b1000001000000010100 $
b1000001000000010100 v
b1000001000000010100 0"
b1000000011000 *
b1000000011000 B
b1000000011000 s
b1000000011000 {
b1000000010100 +
b1000000010100 C
b1000000010100 i
b1000000010100 q
b1000000010100 #"
b1000000010100 +"
b1000000010100 ."
b1010 A
1?
#200
0?
#210
17
b11111111111111111111101000010111 #
b11111111111111111111101000010111 x
b11111111111111111111101000010111 3"
b11111111111111111111010000001010 >
b11111111111111111111010000001010 G
b11111111111111111111010000001010 T
b11111111111111111111010000001010 |
b11111111111111111111010000001010 !
b11111111111111111111010000001010 !"
b11111111111111111111010000001010 )"
b11111111111111111111101000000101 /
b11111111111111111111101000000101 E
b11111111111111111111101000000101 l
b11111111111111111111101000000101 .
b11111111111111111111101000000101 D
b11111111111111111111101000000101 r
b111001100110010 Y
b111001100110010 c
b111001100110001 W
b111001100110001 g
b111001100110010 X
b111001100110010 e
b10010 ("
b11111111111111111111101000000101 '
b11111111111111111111101000000101 I
b11111111111111111111101000000101 U
b11111111111111111111101000000101 p
b11111111111111111111101000000101 '"
b1001 %"
b11111111111111111111101000000101 (
b11111111111111111111101000000101 J
b11111111111111111111101000000101 k
b11111111111111111111101000000101 &"
b11111111111111111111101000000101 2"
b10010 $"
b100110010000000000000000 j
b10010 &
b10010 n
b1001 3
b1001 m
b1001 1"
b1001 8
b1001 ,"
b1001000010000000100 "
b1001000010000000100 /"
b0 =
b0 F
b0 L
02
1:
b10 9
b10 N
b10 ~
0<
b11 ;
b11 M
b11 o
b110011 R
b11000010110010001100100001000000111001100110010001000000111001100110010001000000111001100110001 4
b11000010110010001100100001000000111001100110010001000000111001100110010001000000111001100110001 \
b10010 _
b10010 b
b1001 a
b1001 f
b10010 `
b10010 d
b11000010110010001100100001000000111001100110010001000000111001100110010001000000111001100110001 [
b100110010000100100110011 0
b100110010000100100110011 K
b100110010000100100110011 Z
b100110010000100100110011 h
b1000000011100 -
b1000000011100 y
b1000000011100 ""
b1000000101010 %
b1000000101010 w
b1000000101010 -"
b10010001100000100000 $
b10010001100000100000 v
b10010001100000100000 0"
b1000000011100 *
b1000000011100 B
b1000000011100 s
b1000000011100 {
b1000000011000 +
b1000000011000 C
b1000000011000 i
b1000000011000 q
b1000000011000 #"
b1000000011000 +"
b1000000011000 ."
b1011 A
1?
#220
b11111111111111111110111000001111 !
b11111111111111111110111000001111 !"
b11111111111111111110111000001111 )"
b11111111111111111110111000001111 >
b11111111111111111110111000001111 G
b11111111111111111110111000001111 T
b11111111111111111110111000001111 |
15
16
07
b11111111111111111111010000001010 /
b11111111111111111111010000001010 E
b11111111111111111111010000001010 l
b11111111111111111111010000011100 #
b11111111111111111111010000011100 x
b11111111111111111111010000011100 3"
b11111111111111111111010000001010 (
b11111111111111111111010000001010 J
b11111111111111111111010000001010 k
b11111111111111111111010000001010 &"
b11111111111111111111010000001010 2"
0?
#230
b11100000 !
b11100000 !"
b11100000 )"
b11100000 >
b11100000 G
b11100000 T
b11100000 |
05
06
b11100001 /
b11100001 E
b11100001 l
b11011111 #
b11011111 x
b11011111 3"
b11111111111111111111111111111111 .
b11111111111111111111111111111111 D
b11111111111111111111111111111111 r
b111001100110000 Y
b111001100110000 c
b111001100110000 X
b111001100110000 e
b1000 ("
b0 '
b0 I
b0 U
b0 p
b0 '"
b11111 %"
b11100001 (
b11100001 J
b11100001 k
b11100001 &"
b11100001 2"
b1000 $"
b11111111111101000000000000000000 j
b11111111111111111111111111101000 &
b11111111111111111111111111101000 n
b11111111111111111111111111111111 3
b11111111111111111111111111111111 m
b11111111111111111111111111111111 1"
b101111110100 8
b101111110100 ,"
b10100000011111111111 "
b10100000011111111111 /"
b1 ;
b1 M
b1 o
b111111111111 Q
b10011 R
b1100001011001000110010001101001001000000111001100110000001000000111001100110000001000000010110100110001 4
b1100001011001000110010001101001001000000111001100110000001000000111001100110000001000000010110100110001 \
b1000 _
b1000 b
b1000 `
b1000 d
b1100001011001000110010001101001001000000111001100110000001000000111001100110000001000000010110100110001 [
b11111111111101000000010000010011 0
b11111111111101000000010000010011 K
b11111111111101000000010000010011 Z
b11111111111101000000010000010011 h
b1000000100000 -
b1000000100000 y
b1000000100000 ""
b100000000100 %
b100000000100 w
b100000000100 -"
b11111111111101000010000000011010 $
b11111111111101000010000000011010 v
b11111111111101000010000000011010 0"
b1000000100000 *
b1000000100000 B
b1000000100000 s
b1000000100000 {
b1000000011100 +
b1000000011100 C
b1000000011100 i
b1000000011100 q
b1000000011100 #"
b1000000011100 +"
b1000000011100 ."
b1100 A
1?
#240
b11011111 !
b11011111 !"
b11011111 )"
b11011111 >
b11011111 G
b11011111 T
b11011111 |
b11100000 /
b11100000 E
b11100000 l
b11011110 #
b11011110 x
b11011110 3"
b11100000 (
b11100000 J
b11100000 k
b11100000 &"
b11100000 2"
0?
#250
17
b11111111111111111111111111101010 #
b11111111111111111111111111101010 x
b11111111111111111111111111101010 3"
b1000000100100 !
b1000000100100 !"
b1000000100100 )"
b1111010011001010111001001101111 Y
b1111010011001010111001001101111 c
b0 ("
b10101 %"
b0 (
b0 J
b0 k
b0 &"
b0 2"
b11111 $"
b11111111010111111111000000000000 j
b11111111111111111111111111100000 &
b11111111111111111111111111100000 n
b11111111111111111111111111110101 3
b11111111111111111111111111110101 m
b11111111111111111111111111110101 1"
b101111110000 8
b101111110000 ,"
b11111111111111111010 "
b11111111111111111010 /"
bx =
bx F
bx L
x2
b1 9
b1 N
b1 ~
x<
bx ;
bx M
bx o
b11 ,
b11 S
b11 u
b111111110101 Q
b111 O
b1101111 R
b11010100110000101101100001000000111101001100101011100100110111100100000001011010011000100110010 4
b11010100110000101101100001000000111101001100101011100100110111100100000001011010011000100110010 \
b0 _
b0 b
b11111111111111110100 ^
b11010100110000101101100001000000111101001100101011100100110111100100000001011010011000100110010 [
b11111111010111111111000001101111 0
b11111111010111111111000001101111 K
b11111111010111111111000001101111 Z
b11111111010111111111000001101111 h
b1000000010100 -
b1000000010100 y
b1000000010100 ""
b100000000000 %
b100000000000 w
b100000000000 -"
b1000000010100 $
b1000000010100 v
b1000000010100 0"
b1000000100100 *
b1000000100100 B
b1000000100100 s
b1000000100100 {
b1000000100000 +
b1000000100000 C
b1000000100000 i
b1000000100000 q
b1000000100000 #"
b1000000100000 +"
b1000000100000 ."
b1101 A
1?
#260
0?
